%YAML 1.1
%TAG !u! tag:unity3d.com,2011:
--- !u!114 &11400000
MonoBehaviour:
  m_ObjectHideFlags: 0
  m_CorrespondingSourceObject: {fileID: 0}
  m_PrefabInstance: {fileID: 0}
  m_PrefabAsset: {fileID: 0}
  m_GameObject: {fileID: 0}
  m_Enabled: 1
  m_EditorHideFlags: 0
  m_Script: {fileID: 11500000, guid: 2d1a5c9c5fb377443b32f6443a1689ee, type: 3}
  m_Name: ObjectsPositionConfiguration
  m_EditorClassIdentifier: 
  _currentConfiguration:
  - _idKindOfConfiguration: Tutotial
    _kindOfObjectInPositions:
    - _IdObject: Damage
      _currentPosition: {x: 2.4602032, y: -2.3299563, z: 0}
    - _IdObject: Damage
      _currentPosition: {x: -3.3574529, y: -2.3299563, z: 0}
    - _IdObject: Damage
      _currentPosition: {x: -0.2315484, y: 4.9638214, z: 0}
    - _IdObject: Health
      _currentPosition: {x: -0.6078144, y: -1.9826335, z: 0}
    - _IdObject: Skill
      _currentPosition: {x: -2.2575974, y: 2.3010135, z: 0}
    - _IdObject: Skill
      _currentPosition: {x: 2.199711, y: 2.1562958, z: 0}
  - _idKindOfConfiguration: Tutotial
    _kindOfObjectInPositions:
    - _IdObject: Hielo
      _currentPosition: {x: -2.8075252, y: -2.1273513, z: 0}
    - _IdObject: Hielo
      _currentPosition: {x: 3.2706227, y: -2.243126, z: 0}
    - _IdObject: Skill
      _currentPosition: {x: 0.28943583, y: -2.243126, z: 0}
    - _IdObject: Skill
      _currentPosition: {x: -2.8075252, y: 1.8089724, z: 0}
    - _IdObject: Skill
      _currentPosition: {x: -0.028943382, y: 1.3748193, z: 0}
    - _IdObject: Skill
      _currentPosition: {x: 2.8943563, y: 1.7800295, z: 0}
    - _IdObject: Damage
      _currentPosition: {x: -0.1157742, y: 4.7322726, z: 0}
  - _idKindOfConfiguration: Tutotial
    _kindOfObjectInPositions:
    - _IdObject: Hielo
      _currentPosition: {x: -2.836469, y: 4.2981186, z: 0}
    - _IdObject: Damage
      _currentPosition: {x: 2.9811876, y: 4.1823444, z: 0}
    - _IdObject: Skill
      _currentPosition: {x: 0.028943717, y: 0.6801748, z: 0}
    - _IdObject: Skill
      _currentPosition: {x: -3.0390735, y: -2.677279, z: 0}
    - _IdObject: Skill
      _currentPosition: {x: 3.2706227, y: -2.0984077, z: 0}
    - _IdObject: Health
      _currentPosition: {x: -0.08683082, y: 7.527036, z: 0}
    - _IdObject: Skill
      _currentPosition: {x: -2.7785814, y: 11.260755, z: 0}
    - _IdObject: Skill
      _currentPosition: {x: 2.6049204, y: 11.37653, z: 0}
    - _IdObject: Damage
      _currentPosition: {x: -2.836469, y: 15.471079, z: 0}
    - _IdObject: Damage
      _currentPosition: {x: 2.9233, y: 15.55791, z: 0}
    - _IdObject: Skill
      _currentPosition: {x: -0.028943382, y: 18.510153, z: 0}
  - _idKindOfConfiguration: Facil
    _kindOfObjectInPositions:
    - _IdObject: Hielo
      _currentPosition: {x: -2.836469, y: 4.2981186, z: 0}
    - _IdObject: Damage
      _currentPosition: {x: 2.9811876, y: 4.1823444, z: 0}
    - _IdObject: Skill
      _currentPosition: {x: 0.028943717, y: 0.6801748, z: 0}
    - _IdObject: Skill
      _currentPosition: {x: -3.0390735, y: -2.677279, z: 0}
    - _IdObject: Skill
      _currentPosition: {x: 3.2706227, y: -2.0984077, z: 0}
    - _IdObject: Health
      _currentPosition: {x: -0.08683082, y: 7.527036, z: 0}
    - _IdObject: Skill
      _currentPosition: {x: -2.7785814, y: 11.260755, z: 0}
    - _IdObject: Skill
      _currentPosition: {x: 2.6049204, y: 11.37653, z: 0}
    - _IdObject: Damage
      _currentPosition: {x: -2.836469, y: 15.471079, z: 0}
    - _IdObject: Damage
      _currentPosition: {x: -0.28943583, y: 11.094285, z: 0}
    - _IdObject: Skill
      _currentPosition: {x: -0.028943382, y: 18.510153, z: 0}
    - _IdObject: Damage
      _currentPosition: {x: 2.6049204, y: 15.667367, z: 0}
  - _idKindOfConfiguration: Facil
    _kindOfObjectInPositions:
    - _IdObject: Hielo
      _currentPosition: {x: -2.836469, y: 4.2981186, z: 0}
    - _IdObject: Damage
      _currentPosition: {x: 2.9811876, y: 4.1823444, z: 0}
    - _IdObject: Skill
      _currentPosition: {x: 0.028943717, y: 0.6801748, z: 0}
    - _IdObject: Skill
      _currentPosition: {x: -3.0390735, y: -2.677279, z: 0}
    - _IdObject: Skill
      _currentPosition: {x: 3.2706227, y: -2.0984077, z: 0}
    - _IdObject: Damage
      _currentPosition: {x: -2.836469, y: 15.471079, z: 0}
    - _IdObject: Damage
      _currentPosition: {x: 2.9233, y: 15.55791, z: 0}
    - _IdObject: Skill
      _currentPosition: {x: -0.028943382, y: 18.510153, z: 0}
    - _IdObject: Health
      _currentPosition: {x: -0.057886764, y: 11.152172, z: 0}
  - _idKindOfConfiguration: Facil
    _kindOfObjectInPositions:
    - _IdObject: Hielo
      _currentPosition: {x: -2.836469, y: 4.2981186, z: 0}
    - _IdObject: Damage
      _currentPosition: {x: 2.9811876, y: 4.1823444, z: 0}
    - _IdObject: Health
      _currentPosition: {x: -0.08683082, y: 7.527036, z: 0}
    - _IdObject: Skill
      _currentPosition: {x: -2.7785814, y: 11.260755, z: 0}
    - _IdObject: Skill
      _currentPosition: {x: 2.6049204, y: 11.37653, z: 0}
    - _IdObject: Damage
      _currentPosition: {x: -2.836469, y: 15.471079, z: 0}
    - _IdObject: Damage
      _currentPosition: {x: 2.9233, y: 15.55791, z: 0}
    - _IdObject: Skill
      _currentPosition: {x: -0.028943382, y: 18.510153, z: 0}
  - _idKindOfConfiguration: Medio
    _kindOfObjectInPositions:
    - _IdObject: Hielo
      _currentPosition: {x: -2.836469, y: 4.2981186, z: 0}
    - _IdObject: Damage
      _currentPosition: {x: 2.952243, y: 4.366162, z: 0}
    - _IdObject: Skill
      _currentPosition: {x: 0.028943717, y: 0.6801748, z: 0}
    - _IdObject: Skill
      _currentPosition: {x: -3.0390735, y: -2.677279, z: 0}
    - _IdObject: Skill
      _currentPosition: {x: 3.2706227, y: -2.0984077, z: 0}
    - _IdObject: Health
      _currentPosition: {x: -0.08683082, y: 7.527036, z: 0}
    - _IdObject: Skill
      _currentPosition: {x: -2.7785814, y: 11.260755, z: 0}
    - _IdObject: Skill
      _currentPosition: {x: 2.6049204, y: 11.37653, z: 0}
    - _IdObject: Damage
      _currentPosition: {x: -2.836469, y: 15.471079, z: 0}
    - _IdObject: Damage
      _currentPosition: {x: 2.9233, y: 15.55791, z: 0}
    - _IdObject: Skill
      _currentPosition: {x: -0.028943382, y: 18.510153, z: 0}
    - _IdObject: Damage
      _currentPosition: {x: -3.096961, y: -6.806054, z: 0}
    - _IdObject: Damage
      _currentPosition: {x: 3.183792, y: -6.140352, z: 0}
    - _IdObject: Health
      _currentPosition: {x: 0.1157742, y: -3.998528, z: 0}
  - _idKindOfConfiguration: Medio
    _kindOfObjectInPositions:
    - _IdObject: Hielo
      _currentPosition: {x: -2.836469, y: 4.2981186, z: 0}
    - _IdObject: Damage
      _currentPosition: {x: 2.9811876, y: 4.1823444, z: 0}
    - _IdObject: Skill
      _currentPosition: {x: 0.028943717, y: 0.6801748, z: 0}
    - _IdObject: Skill
      _currentPosition: {x: -3.0390735, y: -2.677279, z: 0}
    - _IdObject: Skill
      _currentPosition: {x: 3.2706227, y: -2.0984077, z: 0}
    - _IdObject: Health
      _currentPosition: {x: -0.08683082, y: 7.527036, z: 0}
    - _IdObject: Skill
      _currentPosition: {x: -2.7785814, y: 11.260755, z: 0}
    - _IdObject: Skill
      _currentPosition: {x: 2.6049204, y: 11.37653, z: 0}
    - _IdObject: Damage
      _currentPosition: {x: -2.836469, y: 15.471079, z: 0}
    - _IdObject: Damage
      _currentPosition: {x: 2.9233, y: 15.55791, z: 0}
    - _IdObject: Skill
      _currentPosition: {x: -0.028943382, y: 18.510153, z: 0}
    - _IdObject: Hielo
      _currentPosition: {x: -3.4732273, y: -6.4587307, z: 0}
    - _IdObject: Hielo
      _currentPosition: {x: 0, y: -3.8393388, z: 0}
    - _IdObject: Hielo
      _currentPosition: {x: 3.3285093, y: -6.4587307, z: 0}
  - _idKindOfConfiguration: Medio
    _kindOfObjectInPositions:
    - _IdObject: Hielo
      _currentPosition: {x: -2.836469, y: 4.2981186, z: 0}
    - _IdObject: Damage
      _currentPosition: {x: 2.9811876, y: 4.1823444, z: 0}
    - _IdObject: Skill
      _currentPosition: {x: 0.028943717, y: 0.6801748, z: 0}
    - _IdObject: Skill
      _currentPosition: {x: -3.0390735, y: -2.677279, z: 0}
    - _IdObject: Skill
      _currentPosition: {x: 3.2706227, y: -2.0984077, z: 0}
    - _IdObject: Health
      _currentPosition: {x: -0.08683082, y: 7.527036, z: 0}
    - _IdObject: Skill
      _currentPosition: {x: -2.7785814, y: 11.260755, z: 0}
    - _IdObject: Skill
      _currentPosition: {x: 2.6049204, y: 11.37653, z: 0}
    - _IdObject: Damage
      _currentPosition: {x: -2.836469, y: 15.471079, z: 0}
    - _IdObject: Damage
      _currentPosition: {x: 2.9233, y: 15.55791, z: 0}
    - _IdObject: Skill
      _currentPosition: {x: -0.028943382, y: 18.510153, z: 0}
    - _IdObject: Health
      _currentPosition: {x: -0.1157742, y: -5.8038797, z: 0}
    - _IdObject: Damage
      _currentPosition: {x: -2.9811864, y: -9.016615, z: 0}
    - _IdObject: Damage
      _currentPosition: {x: 3.2127352, y: -8.785067, z: 0}
    - _IdObject: Damage
      _currentPosition: {x: -0.08683082, y: -12.605616, z: 0}
  - _idKindOfConfiguration: Dificil
    _kindOfObjectInPositions:
    - _IdObject: Hielo
      _currentPosition: {x: -2.836469, y: 4.2981186, z: 0}
    - _IdObject: Damage
      _currentPosition: {x: 2.9811876, y: 4.395105, z: 0}
    - _IdObject: Skill
      _currentPosition: {x: 0.028943717, y: 0.6801748, z: 0}
    - _IdObject: Skill
      _currentPosition: {x: -3.0390735, y: -2.677279, z: 0}
    - _IdObject: Skill
      _currentPosition: {x: 3.2706227, y: -2.0984077, z: 0}
    - _IdObject: Health
      _currentPosition: {x: -0.08683082, y: 7.527036, z: 0}
    - _IdObject: Skill
      _currentPosition: {x: -2.7785814, y: 11.260755, z: 0}
    - _IdObject: Skill
      _currentPosition: {x: 2.6049204, y: 11.37653, z: 0}
    - _IdObject: Damage
      _currentPosition: {x: -2.836469, y: 15.471079, z: 0}
    - _IdObject: Damage
      _currentPosition: {x: 2.9233, y: 15.55791, z: 0}
    - _IdObject: Skill
      _currentPosition: {x: -0.028943382, y: 18.510153, z: 0}
    - _IdObject: Health
      _currentPosition: {x: -0.057886764, y: -4.287964, z: 0}
    - _IdObject: Skill
      _currentPosition: {x: 0, y: -7.9348526, z: 0}
    - _IdObject: Hielo
      _currentPosition: {x: -3.241679, y: -11.245269, z: 0}
    - _IdObject: Hielo
      _currentPosition: {x: 3.3285093, y: -11.389986, z: 0}
    - _IdObject: Damage
      _currentPosition: {x: -0.20260501, y: -15.64469, z: 0}
  - _idKindOfConfiguration: Dificil
    _kindOfObjectInPositions:
    - _IdObject: Hielo
      _currentPosition: {x: -2.836469, y: 4.2981186, z: 0}
    - _IdObject: Damage
      _currentPosition: {x: 2.9811876, y: 4.1823444, z: 0}
    - _IdObject: Skill
      _currentPosition: {x: 0.028943717, y: 0.6801748, z: 0}
    - _IdObject: Skill
      _currentPosition: {x: -3.0390735, y: -2.677279, z: 0}
    - _IdObject: Skill
      _currentPosition: {x: 3.2706227, y: -2.0984077, z: 0}
    - _IdObject: Health
      _currentPosition: {x: -0.08683082, y: 7.527036, z: 0}
    - _IdObject: Skill
      _currentPosition: {x: -2.7785814, y: 11.260755, z: 0}
    - _IdObject: Skill
      _currentPosition: {x: 2.6049204, y: 11.37653, z: 0}
    - _IdObject: Damage
      _currentPosition: {x: -2.836469, y: 15.471079, z: 0}
    - _IdObject: Damage
      _currentPosition: {x: 2.9233, y: 15.55791, z: 0}
    - _IdObject: Skill
      _currentPosition: {x: -0.028943382, y: 18.510153, z: 0}
    - _IdObject: Damage
      _currentPosition: {x: -1.6208391, y: -6.3538074, z: 0}
    - _IdObject: Damage
      _currentPosition: {x: -3.41534, y: -10.2322445, z: 0}
    - _IdObject: Damage
      _currentPosition: {x: 3.183792, y: -10.261188, z: 0}
    - _IdObject: Health
      _currentPosition: {x: 1.0998552, y: -6.2959194, z: 0}
  - _idKindOfConfiguration: Dificil
    _kindOfObjectInPositions:
    - _IdObject: Hielo
      _currentPosition: {x: -2.836469, y: 4.2981186, z: 0}
    - _IdObject: Damage
      _currentPosition: {x: 2.9811876, y: 4.1823444, z: 0}
    - _IdObject: Skill
      _currentPosition: {x: 0.028943717, y: 0.6801748, z: 0}
    - _IdObject: Skill
      _currentPosition: {x: -3.0390735, y: -2.677279, z: 0}
    - _IdObject: Skill
      _currentPosition: {x: 3.2706227, y: -2.0984077, z: 0}
    - _IdObject: Health
      _currentPosition: {x: -0.08683082, y: 7.527036, z: 0}
    - _IdObject: Skill
      _currentPosition: {x: -2.7785814, y: 11.260755, z: 0}
    - _IdObject: Skill
      _currentPosition: {x: 2.6049204, y: 11.37653, z: 0}
    - _IdObject: Damage
      _currentPosition: {x: -2.836469, y: 15.471079, z: 0}
    - _IdObject: Damage
      _currentPosition: {x: 2.9233, y: 15.55791, z: 0}
    - _IdObject: Skill
      _currentPosition: {x: -0.028943382, y: 18.510153, z: 0}
    - _IdObject: Health
      _currentPosition: {x: -0.1157742, y: -5.8038797, z: 0}
    - _IdObject: Damage
      _currentPosition: {x: -2.9811864, y: -9.016615, z: 0}
    - _IdObject: Damage
      _currentPosition: {x: 3.2127352, y: -8.785067, z: 0}
    - _IdObject: Damage
      _currentPosition: {x: -0.08683082, y: -12.605616, z: 0}
