%YAML 1.1
%TAG !u! tag:unity3d.com,2011:
--- !u!78 &1
TagManager:
  serializedVersion: 2
  tags:
  - Platform
  - Destructor
  - Destructible
  layers:
  - Default
  - TransparentFX
  - Ignore Raycast
  - Obstacle
  - Water
  - UI
  - Health
  - Platform
  - Movable
  - 
  - 
  - 
  - 
  - 
  - 
  - 
  - 
  - 
  - 
  - 
  - 
  - 
  - 
  - 
  - 
  - 
  - 
  - 
  - 
  - 
  - 
  - 
  m_SortingLayers:
  - name: Default
    uniqueID: 0
    locked: 0
  - name: Game
    uniqueID: 3385829325
    locked: 0
  - name: Player
    uniqueID: 3600731821
    locked: 0
