%YAML 1.1
%TAG !u! tag:unity3d.com,2011:
--- !u!114 &11400000
MonoBehaviour:
  m_ObjectHideFlags: 0
  m_CorrespondingSourceObject: {fileID: 0}
  m_PrefabInstance: {fileID: 0}
  m_PrefabAsset: {fileID: 0}
  m_GameObject: {fileID: 0}
  m_Enabled: 1
  m_EditorHideFlags: 0
  m_Script: {fileID: 11500000, guid: 43f672049251f094384485ce1dfe67d7, type: 3}
  m_Name: Droppable Items Configuration 2
  m_EditorClassIdentifier: 
  _currentDroppableItems:
  - idItem: Heal
    probability: 60
    _abstractItem: {fileID: 7419646679702093355, guid: 3ceb29b1d204e3a40a2d6c5d2d11fd6a, type: 3}
  _factorProbability: 1
  _dropChance: 60
