%YAML 1.1
%TAG !u! tag:unity3d.com,2011:
--- !u!114 &11400000
MonoBehaviour:
  m_ObjectHideFlags: 0
  m_CorrespondingSourceObject: {fileID: 0}
  m_PrefabInstance: {fileID: 0}
  m_PrefabAsset: {fileID: 0}
  m_GameObject: {fileID: 0}
  m_Enabled: 1
  m_EditorHideFlags: 0
  m_Script: {fileID: 11500000, guid: 43f672049251f094384485ce1dfe67d7, type: 3}
  m_Name: Droppable Skills Configuration 1
  m_EditorClassIdentifier: 
  _currentDroppableItems:
  - idItem: Skill
    probability: 80
    _abstractItem: {fileID: 1411486631609781373, guid: fe6816a3d4ef451418c57ab179356f28, type: 3}
  _factorProbability: 1
  _dropChance: 80
